\relax 
\citation{Zstandard}
\citation{ISOVDM96}
\citation{FM99-MATRA-nocross}
\citation{CDDM92}
\citation{AFM-DeMe}
\citation{Tatibouet2003}
\citation{watson97}
\citation{B96-Bert}
\citation{B98-Potet}
\citation{ZB00-Dimitrakos}
\citation{BBook}
\@writefile{toc}{\contentsline {section}{\numberline {1}Introduction}{1}}
\newlabel{sec:introduction}{{1}{1}}
\citation{BRILLANT}
\citation{B96-Bert}
\citation{harper94typetheoretic}
\citation{Leroy-modular-modules-jfp}
\citation{PetitPhd}
\citation{BRILLANT05a}
\citation{Marcano02a}
\citation{ZB02-Laleau}
\citation{ZB02-Bodeveix}
\citation{ZB00-Laleau}
\citation{ocaml309}
\@writefile{toc}{\contentsline {section}{\numberline {2}Overview of the BRILLANT platform}{2}}
\newlabel{sec:overview}{{2}{2}}
\citation{ZB02-Bodeveix}
\citation{Mariano-Phd}
\citation{ocaml309}
\@writefile{toc}{\contentsline {section}{\numberline {3}Case Study}{3}}
\newlabel{sec:case-study}{{3}{3}}
\@writefile{toc}{\contentsline {section}{\numberline {4}The BCaml Kernel}{3}}
\newlabel{sec:from-b-spec-to-xml}{{4}{3}}
\@writefile{toc}{\contentsline {subsection}{\numberline {4.1}BCaml input and output}{3}}
\newlabel{sec:kernel-bcaml-input-output}{{4.1}{3}}
\@writefile{toc}{\contentsline {subsubsection}{\numberline {4.1.1}A concrete grammar for B\xspace  }{3}}
\newlabel{sec:grammar-b}{{4.1.1}{3}}
\@writefile{toc}{\contentsline {paragraph}{ }{3}}
\@writefile{lof}{\contentsline {figure}{\numberline {1}{\ignorespaces The overall organization of \emph  {BRILLANT}\xspace  }}{4}}
\newlabel{fig:brillant}{{1}{4}}
\citation{BBook}
\newlabel{sec:parsing-scoping}{{4.1.1}{5}}
\@writefile{toc}{\contentsline {paragraph}{Peculiarities in the parsing of B\xspace  machines}{5}}
\@writefile{toc}{\contentsline {subsubsection}{\numberline {4.1.2}Abstract syntax and XML syntax---two isomorphic formats}{5}}
\newlabel{sec:abstract-syntax-xml}{{4.1.2}{5}}
\@writefile{toc}{\contentsline {paragraph}{ }{5}}
\@writefile{toc}{\contentsline {subsubsection}{\numberline {4.1.3}How \emph  {BCaml}\xspace  exploits the Abstract Syntax Tree (AST)}{5}}
\newlabel{sec:how-bcaml-exploits-ast}{{4.1.3}{5}}
\@writefile{toc}{\contentsline {paragraph}{ }{5}}
\@writefile{toc}{\contentsline {subsection}{\numberline {4.2}B modularity related AST processing}{5}}
\newlabel{sec:kernel-astmanipulation}{{4.2}{5}}
\citation{BBook}
\citation{B98-Potet-nocross}
\citation{Behnia-Phd}
\citation{petit2001}
\citation{petit2001}
\citation{petit2001}
\citation{Leroy-modular-modules-jfp}
\citation{petit-fdl04}
\@writefile{toc}{\contentsline {subsubsection}{\numberline {4.2.1}The flattening algorithm}{6}}
\newlabel{sec:depliage}{{4.2.1}{6}}
\@writefile{toc}{\contentsline {paragraph}{ }{6}}
\@writefile{toc}{\contentsline {paragraph}{The enrichment mechanism}{6}}
\@writefile{toc}{\contentsline {subsubsection}{\numberline {4.2.2}The B-HLL module system}{6}}
\newlabel{sec:bhll}{{4.2.2}{6}}
\@writefile{toc}{\contentsline {paragraph}{Overview}{6}}
\citation{ZB02-Bodeveix}
\citation{BBook}
\citation{petit-fdl04}
\citation{PetitPhd}
\@writefile{toc}{\contentsline {paragraph}{Instantiation}{7}}
\@writefile{lof}{\contentsline {figure}{\numberline {2}{\ignorespaces Using the HLL module system}}{7}}
\newlabel{fig:hll}{{2}{7}}
\citation{BBook}
\citation{BBook}
\citation{BBook}
\citation{BBook}
\citation{BBook}
\@writefile{toc}{\contentsline {subsubsection}{\numberline {4.2.3} Code generation feedback }{8}}
\newlabel{sec:Bmod}{{4.2.3}{8}}
\@writefile{toc}{\contentsline {paragraph}{ }{8}}
\@writefile{toc}{\contentsline {subsection}{\numberline {4.3}Generating proof obligations}{8}}
\newlabel{sec:bcaml-pog}{{4.3}{8}}
\@writefile{toc}{\contentsline {subsubsection}{\numberline {4.3.1}Generalized Substitution Language (GSL)}{8}}
\newlabel{sec:GSL}{{4.3.1}{8}}
\@writefile{toc}{\contentsline {paragraph}{ }{8}}
\citation{BBook}
\@writefile{toc}{\contentsline {subsubsection}{\numberline {4.3.2}Proof Obligation Generation}{9}}
\newlabel{sec:POG}{{4.3.2}{9}}
\@writefile{toc}{\contentsline {paragraph}{ }{9}}
\@writefile{toc}{\contentsline {paragraph}{Parsing}{9}}
\@writefile{lol}{\contentsline {lstlisting}{figures/po\textendash timeOut\textunderscore 1\textunderscore showRlight.amn}{9}}
\@writefile{lof}{\contentsline {figure}{\numberline {3}{\ignorespaces Uncalculated proof obligation for the \textbf  {timeOut\kern .08em\vbox {\hrule width.35em height.6pt}\kern .08em1\kern .08em\vbox {\hrule width.35em height.6pt}\kern .08emshowRlight} operation (\`a supprimer)}}{9}}
\newlabel{fig:po-timeOut_1_showRlight}{{3}{9}}
\@writefile{toc}{\contentsline {paragraph}{Generation of formulas}{9}}
\@writefile{toc}{\contentsline {paragraph}{Optimizations}{9}}
\@writefile{toc}{\contentsline {paragraph}{Final files and trace information}{9}}
\citation{Abrial03}
\citation{RocheteauColinMarianoPoirriez04}
\citation{PhoX}
\citation{RocheteauColinMarianoPoirriez04}
\citation{BBook}
\citation{BBook}
\citation{BBook}
\citation{BBook}
\citation{Coq08}
\@writefile{toc}{\contentsline {subsubsection}{\numberline {4.3.3}Exporting to other tools}{10}}
\newlabel{sec:exporting-to-other-tools}{{4.3.3}{10}}
\@writefile{toc}{\contentsline {paragraph}{ }{10}}
\@writefile{toc}{\contentsline {section}{\numberline {5}From B proof obligations to correctness}{10}}
\newlabel{sec:from-b-proof-to-correctness}{{5}{10}}
\citation{BBook}
\citation{BBook}
\citation{eventb-rodinD7}
\@writefile{toc}{\contentsline {subsection}{\numberline {5.1}Coq}{11}}
\newlabel{sec:coq}{{5.1}{11}}
\@writefile{toc}{\contentsline {subsection}{\numberline {5.2}Implementation of the mathematical foundations of B}{11}}
\newlabel{sec:implementation-bicoax}{{5.2}{11}}
\citation{BBook}
\citation{BBook}
\citation{Casteran07}
\@writefile{lot}{\contentsline {table}{\numberline {1}{\ignorespaces Global organization of BiCoax\xspace  }}{12}}
\newlabel{tab:global-organization-bicoax}{{1}{12}}
\citation{colin09a}
\@writefile{toc}{\contentsline {subsection}{\numberline {5.3}Theoretical and experimental results}{13}}
\newlabel{sec:results-bicoax}{{5.3}{13}}
\@writefile{toc}{\contentsline {subsubsection}{\numberline {5.3.1}Theoretical results}{13}}
\newlabel{sec:theoretical-results-bicoax}{{5.3.1}{13}}
\@writefile{toc}{\contentsline {paragraph}{Benefits of a tool-assisted approach.}{13}}
\@writefile{toc}{\contentsline {paragraph}{Implementation peculiarities.}{13}}
\citation{colin09a}
\@writefile{toc}{\contentsline {paragraph}{Natural numbers.}{14}}
\@writefile{toc}{\contentsline {paragraph}{Dependability.}{14}}
\@writefile{toc}{\contentsline {subsubsection}{\numberline {5.3.2}Experimental results}{14}}
\newlabel{sec:experimental-results-bicoax}{{5.3.2}{14}}
\@writefile{lof}{\contentsline {figure}{\numberline {4}{\ignorespaces Proof obligation of the bounded stack for operation ``push''}}{15}}
\newlabel{fig:po-bicoax-stack-op-push}{{4}{15}}
\@writefile{lot}{\contentsline {table}{\numberline {2}{\ignorespaces Proof results of the Boiler with BiCoax\xspace  }}{15}}
\newlabel{table:proof-results}{{2}{15}}
\@writefile{toc}{\contentsline {subsection}{\numberline {5.4}Closing thoughts about BiCoax\xspace  }{15}}
\newlabel{sec:closing-thoughts-bicoax}{{5.4}{15}}
\citation{petit2003forms}
\citation{petit2003sdps}
\citation{petit2003forms}
\citation{petit2003sdps}
\@writefile{lof}{\contentsline {figure}{\numberline {5}{\ignorespaces Proof tree representation of the proof in Fig.\nobreakspace  {}4\hbox {}}}{16}}
\newlabel{fig:prooftree-bicoax-stack-op-push}{{5}{16}}
\@writefile{toc}{\contentsline {section}{\numberline {6}From B specifications to code}{16}}
\newlabel{sec:from-b-spec-to-code}{{6}{16}}
\@writefile{lof}{\contentsline {figure}{\numberline {6}{\ignorespaces The code generation process to obtain flat code}}{17}}
\newlabel{fig:flatcodegenerationprocess}{{6}{17}}
\@writefile{lof}{\contentsline {figure}{\numberline {7}{\ignorespaces The code generation process to obtain component-oriented code}}{17}}
\newlabel{fig:componentcodegenerationprocess}{{7}{17}}
\citation{Marcano02a}
\citation{OCL03b}
\@writefile{lol}{\contentsline {lstlisting}{figures/stack\textendash real.mch}{18}}
\@writefile{lol}{\contentsline {lstlisting}{figures/stack\textunderscore 1\textendash real.imp}{18}}
\@writefile{lof}{\contentsline {figure}{\numberline {8}{\ignorespaces A B\xspace  specification of a bounded stack}}{18}}
\newlabel{fig:stackb}{{8}{18}}
\@writefile{lol}{\contentsline {lstlisting}{figures/stack\textendash real.ads}{18}}
\@writefile{lol}{\contentsline {lstlisting}{figures/stack\textendash real.adb}{18}}
\@writefile{lof}{\contentsline {figure}{\numberline {9}{\ignorespaces The specification and the body of the bounded stack Ada package}}{18}}
\newlabel{fig:stack-ada}{{9}{18}}
\@writefile{toc}{\contentsline {section}{\numberline {7}From UML/OCL models to B specifications}{18}}
\newlabel{sec:from-umlocl-models-to-b}{{7}{18}}
\citation{Poseidon}
\@writefile{toc}{\contentsline {paragraph}{From UML to XML}{19}}
\@writefile{toc}{\contentsline {paragraph}{From XML to UML-parsed models}{19}}
\@writefile{toc}{\contentsline {paragraph}{From UML models to B specifications}{19}}
\citation{FMlibrary}
\citation{B4Free}
\citation{ProB}
\citation{jBTools}
\citation{RodinBSharp}
\citation{Overture}
\citation{CZT}
\citation{Eclipse}
\citation{Mariano-Phd}
\citation{CZT}
\citation{CZT}
\@writefile{toc}{\contentsline {section}{\numberline {8}Discussion, conclusion and perspectives}{20}}
\newlabel{sec:conclusions}{{8}{20}}
\@writefile{toc}{\contentsline {subsection}{\numberline {8.1}Comparison with other works}{20}}
\newlabel{sec:comparison}{{8.1}{20}}
\citation{Overture}
\@writefile{toc}{\contentsline {subsection}{\numberline {8.2}Conclusion}{21}}
\newlabel{sec:conclusion}{{8.2}{21}}
\citation{xsd}
\citation{OCamlDuce}
\citation{xquery}
\citation{xmlrpc}
\citation{ABTOOL05}
\citation{ACSD03-Boulanger}
\citation{Marcano02a}
\citation{B-DC}
\citation{petit2003sdps}
\citation{BRILLANT}
\bibstyle{plain}
\bibdata{biblios/Bmethod,biblios/marcano,biblios/rocheteau,biblios/modules,biblios/dorian,biblios/w3c,biblios/urls,biblios/misc}
\bibcite{ZB00}{1}
\bibcite{BBook}{2}
\bibcite{Abrial03}{3}
\bibcite{B4Free}{4}
\bibcite{FM99-MATRA-nocross}{5}
\bibcite{Behnia-Phd}{6}
\bibcite{B98}{7}
\bibcite{B96-Bert}{8}
\citation{B96-Habrias}
\@writefile{toc}{\contentsline {subsection}{\numberline {8.3}Perspectives}{22}}
\newlabel{sec:perspectives}{{8.3}{22}}
\bibcite{ZB02-Bodeveix}{9}
\citation{ZB02}
\bibcite{ACSD03-Boulanger}{10}
\bibcite{ABTOOL05}{11}
\bibcite{Zstandard}{12}
\bibcite{BRILLANT}{13}
\bibcite{CDDM92}{14}
\bibcite{Casteran07}{15}
\bibcite{colin09a}{16}
\bibcite{B-DC}{17}
\bibcite{BRILLANT05a}{18}
\bibcite{xquery}{19}
\bibcite{CZT}{20}
\bibcite{AFM-DeMe}{21}
\citation{AFM95}
\bibcite{ZB00-Dimitrakos}{22}
\citation{ZB00}
\bibcite{Eclipse}{23}
\bibcite{FMlibrary}{24}
\bibcite{B96-Habrias}{25}
\bibcite{harper94typetheoretic}{26}
\bibcite{AFM95}{27}
\bibcite{jBTools}{28}
\bibcite{ZB00-Laleau}{29}
\citation{ZB00}
\bibcite{ZB02-Laleau}{30}
\citation{ZB02}
\bibcite{ocaml309}{31}
\bibcite{Leroy-modular-modules-jfp}{32}
\bibcite{ZB02}{33}
\bibcite{Marcano02a}{34}
\bibcite{Mariano-Phd}{35}
\bibcite{eventb-rodinD7}{36}
\bibcite{OCamlDuce}{37}
\bibcite{OCL03b}{38}
\bibcite{Overture}{39}
\bibcite{ISOVDM96}{40}
\bibcite{PetitPhd}{41}
\bibcite{petit2001}{42}
\bibcite{petit2003forms}{43}
\bibcite{petit2003sdps}{44}
\bibcite{petit-fdl04}{45}
\bibcite{PhoX}{46}
\bibcite{Poseidon}{47}
\bibcite{B98-Potet}{48}
\citation{B98}
\bibcite{B98-Potet-nocross}{49}
\bibcite{ProB}{50}
\bibcite{RocheteauColinMarianoPoirriez04}{51}
\bibcite{RodinBSharp}{52}
\bibcite{Tatibouet2003}{53}
\bibcite{Coq08}{54}
\bibcite{xsd}{55}
\bibcite{watson97}{56}
\bibcite{xmlrpc}{57}
