\relax 
\catcode`:\active
\catcode`;\active
\catcode`!\active
\catcode`?\active
\select@language{french}
\@writefile{toc}{\select@language{french}}
\@writefile{lof}{\select@language{french}}
\@writefile{lot}{\select@language{french}}
\bibstyle{abstract}
\citation{*}
\bibdata{Bmethod}
\bibcite{AFADL04-Barradas}{AFADL04-Barradas}
\citation{AFADL2004}
\bibcite{AFADL04-Couchot}{AFADL04-Couchot}
\citation{AFADL2004}
\bibcite{AFADL04-Mammar}{AFADL04-Mammar}
\citation{AFADL2004}
\bibcite{AFADL04-Okalas}{AFADL04-Okalas}
\citation{AFADL2004}
\bibcite{AFADL04-Stouls}{AFADL04-Stouls}
\citation{AFADL2004}
\bibcite{AFADL04-Truong}{AFADL04-Truong}
\citation{AFADL2004}
\bibcite{AFADL06}{AFADL06}
\bibcite{AFADL06-Bodeveix}{AFADL06-Bodeveix}
\citation{AFADL06}
\bibcite{AFADL06-Idani}{AFADL06-Idani}
\citation{AFADL06}
\bibcite{AFADL2000}{AFADL2000}
\bibcite{AFADL2000-Bodeveix}{AFADL2000-Bodeveix}
\citation{AFADL2000}
\bibcite{AFADL2000-Bon}{AFADL2000-Bon}
\citation{AFADL2000}
\bibcite{AFADL2000-Cave}{AFADL2000-Cave}
\citation{AFADL2000}
\bibcite{AFADL2000-Marcano}{AFADL2000-Marcano}
\citation{AFADL2000}
\bibcite{AFADL2000-Motre}{AFADL2000-Motre}
\citation{AFADL2000}
\bibcite{AFADL2000-Mountassir}{AFADL2000-Mountassir}
\citation{AFADL2000}
\bibcite{AFADL2000-Py}{AFADL2000-Py}
\citation{AFADL2000}
\bibcite{AFADL2001}{AFADL2001}
\bibcite{AFADL2001-Bert}{AFADL2001-Bert}
\citation{AFADL2001}
\bibcite{AFADL2001-Boite}{AFADL2001-Boite}
\citation{AFADL2001}
\bibcite{AFADL2001-Cansell}{AFADL2001-Cansell}
\citation{AFADL2001}
\bibcite{AFADL2001-Casset}{AFADL2001-Casset}
\citation{AFADL2001}
\bibcite{AFADL2001-Charlet}{AFADL2001-Charlet}
\citation{AFADL2001}
\bibcite{AFADL2001-Chouali}{AFADL2001-Chouali}
\citation{AFADL2001}
\bibcite{AFADL2001-Ledang}{AFADL2001-Ledang}
\citation{AFADL2001}
\bibcite{AFADL2001-Ledoux}{AFADL2001-Ledoux}
\citation{AFADL2001}
\bibcite{AFADL2001-Legeard}{AFADL2001-Legeard}
\citation{AFADL2001}
\bibcite{AFADL2001-Marcano}{AFADL2001-Marcano}
\citation{AFADL2001}
\bibcite{AFADL2003}{AFADL2003}
\bibcite{AFADL2003-Badeau}{AFADL2003-Badeau}
\citation{AFADL2003}
\bibcite{AFADL2003-Berkani}{AFADL2003-Berkani}
\citation{AFADL2003}
\bibcite{AFADL2003-Bodeveix}{AFADL2003-Bodeveix}
\citation{AFADL2003}
\bibcite{AFADL2003-Bouquet}{AFADL2003-Bouquet}
\citation{AFADL2003}
\bibcite{AFADL2003-Hammad}{AFADL2003-Hammad}
\citation{AFADL2003}
\bibcite{AFADL2003-Ledang}{AFADL2003-Ledang}
\citation{AFADL2003}
\bibcite{AFADL2003-Petit}{AFADL2003-Petit}
\citation{AFADL2003}
\bibcite{AFADL2004}{AFADL2004}
\bibcite{AFADL98}{AFADL98}
\bibcite{AFADL98-Julliand}{AFADL98-Julliand}
\citation{AFADL98}
\bibcite{AFADL98-Lanet}{AFADL98-Lanet}
\citation{AFADL98}
\bibcite{AFADL98-Ledru}{AFADL98-Ledru}
\citation{AFADL98}
\bibcite{AFADL98-Ledru2}{AFADL98-Ledru2}
\citation{AFADL98}
\bibcite{AFIS02}{AFIS02}
\bibcite{AFM-DeMe}{AFM-DeMe}
\citation{AFM95}
\bibcite{AFM-JHoare}{AFM-JHoare}
\citation{AFM95}
\bibcite{AFM95}{AFM95}
\bibcite{ALNS91}{ALNS91}
\bibcite{ASM05-Butler}{ASM05-Butler}
\bibcite{AVIS2001-Bellegarde}{AVIS2001-Bellegarde}
\bibcite{Abri84a}{Abri84a}
\bibcite{Abri84b}{Abri84b}
\bibcite{Abri88a}{Abri88a}
\bibcite{Abri88b}{Abri88b}
\bibcite{Abri89}{Abri89}
\bibcite{Abri91}{Abri91}
\bibcite{Abri92}{Abri92}
\bibcite{Abrial88}{Abrial88}
\bibcite{Abrial98}{Abrial98}
\bibcite{Abrial:1998:B}{Abrial:1998:B}
\bibcite{AbrialDSM}{AbrialDSM}
\bibcite{Aertryck97a}{Aertryck97a}
\bibcite{Aertryck97b}{Aertryck97b}
\bibcite{Aertryck98-PhD}{Aertryck98-PhD}
\bibcite{Ait-Ameur-ISPS03}{Ait-Ameur-ISPS03}
\bibcite{Ait-Ameur-SERP03}{Ait-Ameur-SERP03}
\bibcite{Aljer2003}{Aljer2003}
\bibcite{Aljer2003b}{Aljer2003b}
\bibcite{Alnet96}{Alnet96}
\bibcite{Ameur98a}{Ameur98a}
\bibcite{Ameur98b}{Ameur98b}
\bibcite{Attiogbe97}{Attiogbe97}
\bibcite{B-DC}{B-DC}
\bibcite{B07}{B07}
\bibcite{B07-Benaissa}{B07-Benaissa}
\citation{B07}
\bibcite{B07-Bendisposto}{B07-Bendisposto}
\citation{B07}
\bibcite{B07-Bendisposto-b}{B07-Bendisposto-b}
\citation{B07}
\bibcite{B07-Bostrom}{B07-Bostrom}
\citation{B07}
\bibcite{B07-Boulme}{B07-Boulme}
\citation{B07}
\bibcite{B07-Bouquet}{B07-Bouquet}
\citation{B07}
\bibcite{B07-Bouquet-b}{B07-Bouquet-b}
\citation{B07}
\bibcite{B07-Cansell}{B07-Cansell}
\citation{B07}
\bibcite{B07-Chan}{B07-Chan}
\citation{B07}
\bibcite{B07-Chemouil}{B07-Chemouil}
\citation{B07}
\bibcite{B07-Clabaut}{B07-Clabaut}
\citation{B07}
\bibcite{B07-Dunne}{B07-Dunne}
\citation{B07}
\bibcite{B07-Essame}{B07-Essame}
\citation{B07}
\bibcite{B07-Evans}{B07-Evans}
\citation{B07}
\bibcite{B07-Gervais}{B07-Gervais}
\citation{B07}
\bibcite{B07-Groslambert}{B07-Groslambert}
\citation{B07}
\bibcite{B07-Haddad}{B07-Haddad}
\citation{B07}
\bibcite{B07-Hallerstede}{B07-Hallerstede}
\citation{B07}
\bibcite{B07-Hoffmann}{B07-Hoffmann}
\citation{B07}
\bibcite{B07-Ifill}{B07-Ifill}
\citation{B07}
\bibcite{B07-Jaffuel}{B07-Jaffuel}
\citation{B07}
\bibcite{B07-JaffuelL}{B07-JaffuelL}
\citation{B07}
\bibcite{B07-Leuschel}{B07-Leuschel}
\citation{B07}
\bibcite{B07-Oliver}{B07-Oliver}
\citation{B07}
\bibcite{B07-Servat}{B07-Servat}
\citation{B07}
\bibcite{B07-Snook}{B07-Snook}
\citation{B07}
\bibcite{B07-Stoddart}{B07-Stoddart}
\citation{B07}
\bibcite{B07-Stouls}{B07-Stouls}
\citation{B07}
\bibcite{B07-Yang}{B07-Yang}
\citation{B07}
\bibcite{B96-Abrial}{B96-Abrial}
\citation{B96-Habrias}
\bibcite{B96-Behm}{B96-Behm}
\citation{B96-Habrias}
\bibcite{B96-Bert}{B96-Bert}
\citation{B96-Habrias}
\bibcite{B96-Burdy}{B96-Burdy}
\citation{B96-Habrias}
\bibcite{B96-Butler}{B96-Butler}
\citation{B96-Habrias}
\bibcite{B96-Chauvet}{B96-Chauvet}
\citation{B96-Habrias}
\bibcite{B96-Clutterbuck}{B96-Clutterbuck}
\citation{B96-Habrias}
\bibcite{B96-Draper}{B96-Draper}
\citation{B96-Habrias}
\bibcite{B96-Dune}{B96-Dune}
\citation{B96-Habrias}
\bibcite{B96-El-Koursi}{B96-El-Koursi}
\citation{B96-Habrias}
\bibcite{B96-Facon}{B96-Facon}
\citation{B96-Habrias}
\bibcite{B96-Fraer}{B96-Fraer}
\citation{B96-Habrias}
\bibcite{B96-Habrias}{B96-Habrias}
\bibcite{B96-Lano}{B96-Lano}
\citation{B96-Habrias}
\bibcite{B96-Lopez}{B96-Lopez}
\citation{B96-Habrias}
\bibcite{B96-Mery}{B96-Mery}
\citation{B96-Habrias}
\bibcite{B96-Robinson}{B96-Robinson}
\citation{B96-Habrias}
\bibcite{B96-Shore}{B96-Shore}
\citation{B96-Habrias}
\bibcite{B98}{B98}
\bibcite{B98-Abrial}{B98-Abrial}
\citation{B98}
\bibcite{B98-Banach}{B98-Banach}
\citation{B98}
\bibcite{B98-Behm}{B98-Behm}
\citation{B98}
\bibcite{B98-Chartier}{B98-Chartier}
\citation{B98}
\citation{BBook}
\bibcite{B98-Ducasse}{B98-Ducasse}
\citation{B98-educational}
\bibcite{B98-Heuberger}{B98-Heuberger}
\citation{B98}
\bibcite{B98-Julliand}{B98-Julliand}
\citation{B98}
\bibcite{B98-Malioukov}{B98-Malioukov}
\citation{B98}
\bibcite{B98-Matthews}{B98-Matthews}
\citation{B98}
\bibcite{B98-Petin}{B98-Petin}
\citation{B98}
\bibcite{B98-Potet}{B98-Potet}
\citation{B98}
\bibcite{B98-Sekerinski}{B98-Sekerinski}
\citation{B98}
\bibcite{B98-Stoddart}{B98-Stoddart}
\citation{B98}
\bibcite{B98-Traverson}{B98-Traverson}
\citation{B98}
\bibcite{B98-Treharne}{B98-Treharne}
\citation{B98}
\bibcite{B98-Walden}{B98-Walden}
\citation{B98}
\bibcite{B98-educational}{B98-educational}
\bibcite{BB94}{BB94}
\bibcite{BBLW93}{BBLW93}
\bibcite{BBook}{BBook}
\bibcite{BRILLANT05a}{BRILLANT05a}
\bibcite{BUGM99}{BUGM99}
\bibcite{BUGM99-Bellegarde}{BUGM99-Bellegarde}
\citation{BUGM99}
\bibcite{BUGM99-Bodeveix}{BUGM99-Bodeveix}
\citation{BUGM99}
\bibcite{BUGM99-Burdy}{BUGM99-Burdy}
\citation{BUGM99}
\bibcite{BUGM99-Butler}{BUGM99-Butler}
\citation{BUGM99}
\bibcite{BUGM99-Lano}{BUGM99-Lano}
\citation{BUGM99}
\bibcite{BUGM99-Lopez}{BUGM99-Lopez}
\citation{BUGM99}
\bibcite{BUGM99-Stoddart}{BUGM99-Stoddart}
\citation{BUGM99}
\bibcite{BUGM99-Treharne}{BUGM99-Treharne}
\citation{BUGM99}
\bibcite{BUT-Bicarregui95}{BUT-Bicarregui95}
\bibcite{BUT-D2}{BUT-D2}
\bibcite{BUT-D8}{BUT-D8}
\bibcite{Baron-2003}{Baron-2003}
\bibcite{Bcases98}{Bcases98}
\bibcite{Bcases98-Robinson}{Bcases98-Robinson}
\citation{Bcases98}
\bibcite{Behm93}{Behm93}
\bibcite{Behm97}{Behm97}
\citation{arago20}
\bibcite{Behnia-PhD}{Behnia-PhD}
\bibcite{Behnia98}{Behnia98}
\bibcite{Bert-2002}{Bert-2002}
\bibcite{Bert2003}{Bert2003}
\bibcite{BiRi93}{BiRi93}
\bibcite{BiRi95}{BiRi95}
\citation{BiRi93}
\bibcite{Bicarregui95}{Bicarregui95}
\bibcite{Bicarregui97}{Bicarregui97}
\bibcite{Bicarregui98}{Bicarregui98}
\bibcite{Bicarregui99}{Bicarregui99}
\bibcite{Bieber95}{Bieber95}
\bibcite{Bieber96a}{Bieber96a}
\bibcite{Bieber96b}{Bieber96b}
\bibcite{Bon-PhD}{Bon-PhD}
\bibcite{Bos92}{Bos92}
\bibcite{Boulanger2001}{Boulanger2001}
\bibcite{Bro93}{Bro93}
\bibcite{Btoolkit}{Btoolkit}
\bibcite{BuechiICFEM98}{BuechiICFEM98}
\bibcite{Burdy-PhD}{Burdy-PhD}
\bibcite{Butler02}{Butler02}
\bibcite{CADE15}{CADE15}
\bibcite{CBD2002-Petit}{CBD2002-Petit}
\bibcite{CCL97-Cirstea}{CCL97-Cirstea}
\bibcite{CDDM92}{CDDM92}
\bibcite{CLPSB:STTT}{CLPSB:STTT}
\bibcite{CPA07}{CPA07}
\bibcite{CPA07-Grant}{CPA07-Grant}
\citation{CPA07}
\bibcite{CPA07-Ifill}{CPA07-Ifill}
\citation{CPA07}
\bibcite{CPA07-McEwan}{CPA07-McEwan}
\citation{CPA07}
\bibcite{CPA07-Yang}{CPA07-Yang}
\citation{CPA07}
\bibcite{Cha92}{Cha92}
\bibcite{Colin-PhD}{Colin-PhD}
\bibcite{Couchot2003}{Couchot2003}
\bibcite{DDM91}{DDM91}
\bibcite{DM94}{DM94}
\bibcite{DM94b}{DM94b}
\bibcite{DSSE-TR-96-6}{DSSE-TR-96-6}
\bibcite{DSSE-TR-99-2}{DSSE-TR-99-2}
\bibcite{Diller93b}{Diller93b}
\bibcite{Docherty93}{Docherty93}
\bibcite{EDCC4}{EDCC4}
\bibcite{EJC2000-JRA1}{EJC2000-JRA1}
\bibcite{EJC2000-JRA2}{EJC2000-JRA2}
\bibcite{EJC2000-JRA3}{EJC2000-JRA3}
\bibcite{ENTCS-Idani}{ENTCS-Idani}
\bibcite{ESTAS-RT1999-25}{ESTAS-RT1999-25}
\bibcite{FACIT-Frappier}{FACIT-Frappier}
\bibcite{FDL06-Oliver}{FDL06-Oliver}
\bibcite{FEM98-Waeselynck}{FEM98-Waeselynck}
\bibcite{FM99-Behnia}{FM99-Behnia}
\citation{FM99-I}
\bibcite{FM99-Buchi}{FM99-Buchi}
\citation{FM99-I}
\bibcite{FM99-Butler}{FM99-Butler}
\citation{FM99-I}
\bibcite{FM99-Dunne}{FM99-Dunne}
\citation{FM99-I}
\bibcite{FM99-I}{FM99-I}
\bibcite{FM99-II}{FM99-II}
\bibcite{FM99-MATRA}{FM99-MATRA}
\citation{FM99-I}
\bibcite{FM99-Matthews}{FM99-Matthews}
\citation{FM99-I}
\bibcite{FM99-Meyer}{FM99-Meyer}
\citation{FM99-I}
\bibcite{FM99-Munoz}{FM99-Munoz}
\citation{FM99-I}
\bibcite{FM99-Rouzaud}{FM99-Rouzaud}
\citation{FM99-I}
\bibcite{FM99-Sabatier}{FM99-Sabatier}
\citation{FM99-I}
\bibcite{FME03-Butler}{FME03-Butler}
\bibcite{FME2001-Bellegarde}{FME2001-Bellegarde}
\bibcite{FME96-Lano}{FME96-Lano}
\bibcite{FMP97}{FMP97}
\bibcite{FORMS04}{FORMS04}
\bibcite{FORMS04-Boulanger}{FORMS04-Boulanger}
\citation{FORMS04}
\bibcite{FORMS04-Marcano}{FORMS04-Marcano}
\citation{FORMS04}
\bibcite{FORMS2003-Petit}{FORMS2003-Petit}
\bibcite{Faivre99}{Faivre99}
\bibcite{GSW93}{GSW93}
\bibcite{Gervais-PhD}{Gervais-PhD}
\bibcite{Gomes2007}{Gomes2007}
\bibcite{Gue95}{Gue95}
\bibcite{HASE00-Requet}{HASE00-Requet}
\bibcite{HDR-Potet}{HDR-Potet}
\bibcite{HL94a}{HL94a}
\bibcite{Habrias2001}{Habrias2001}
\bibcite{Haughton96}{Haughton96}
\bibcite{Hoa95}{Hoa95}
\bibcite{Hoare96}{Hoare96}
\bibcite{ICFEM2005}{ICFEM2005}
\bibcite{ICFEM2005-Idani}{ICFEM2005-Idani}
\citation{ICFEM2005}
\bibcite{ICSSEA01}{ICSSEA01}
\bibcite{IDPT2003-Petit}{IDPT2003-Petit}
\bibcite{IFM04}{IFM04}
\bibcite{IFM04-Lano}{IFM04-Lano}
\citation{IFM04}
\bibcite{IFM05}{IFM05}
\bibcite{IFM05-Bodeveix}{IFM05-Bodeveix}
\citation{IFM05}
\bibcite{IFM05-Bostrom}{IFM05-Bostrom}
\citation{IFM05}
\bibcite{IFM05-Gervais}{IFM05-Gervais}
\citation{IFM05}
\bibcite{IFM05-Okalas}{IFM05-Okalas}
\citation{IFM05}
\bibcite{IFM05-Schneider}{IFM05-Schneider}
\bibcite{IFM2000-Bert}{IFM2000-Bert}
\bibcite{IFM2000-Julliand}{IFM2000-Julliand}
\bibcite{IFM2000-Meyer}{IFM2000-Meyer}
\bibcite{INRETS01-717}{INRETS01-717}
\bibcite{INRETS9925}{INRETS9925}
\bibcite{J3ea05-boulanger}{J3ea05-boulanger}
\bibcite{JFLA04-Rocheteau}{JFLA04-Rocheteau}
\bibcite{JFLA2002-Petit}{JFLA2002-Petit}
\bibcite{Jambon-2001}{Jambon-2001}
\bibcite{LH94a}{LH94a}
\bibcite{LM02000-Marcano}{LM02000-Marcano}
\bibcite{LPAR07-Jaeger}{LPAR07-Jaeger}
\bibcite{LS90}{LS90}
\bibcite{LS91}{LS91}
\bibcite{LSS91b}{LSS91b}
\bibcite{LaFi96}{LaFi96}
\bibcite{LaHa96}{LaHa96}
\bibcite{Lafontaine90}{Lafontaine90}
\bibcite{Lafontaine91}{Lafontaine91}
\bibcite{Laleau-2000}{Laleau-2000}
\bibcite{Laleau00}{Laleau00}
\bibcite{Laleau2001}{Laleau2001}
\bibcite{Laleau2006}{Laleau2006}
\bibcite{Lanet2004}{Lanet2004}
\bibcite{Lanet98}{Lanet98}
\bibcite{Lanet98b}{Lanet98b}
\bibcite{Lano95}{Lano95}
\bibcite{Lano96}{Lano96}
\bibcite{Lee91}{Lee91}
\bibcite{Levy02a}{Levy02a}
\bibcite{MOSIM06-Fadil}{MOSIM06-Fadil}
\bibcite{MOSIM06-Mosbahi}{MOSIM06-Mosbahi}
\bibcite{Marcano-PhD}{Marcano-PhD}
\bibcite{Marcano00c}{Marcano00c}
\bibcite{Marcano02a}{Marcano02a}
\bibcite{Marcano02b}{Marcano02b}
\bibcite{Mariano-PhD}{Mariano-PhD}
\bibcite{Mariano2002}{Mariano2002}
\bibcite{Mariano96}{Mariano96}
\bibcite{Masson-2001}{Masson-2001}
\bibcite{Mejia93}{Mejia93}
\bibcite{Mejia97}{Mejia97}
\citation{arago20}
\bibcite{Mermet96}{Mermet96}
\bibcite{Meyer-PhD}{Meyer-PhD}
\bibcite{Motre-Teri}{Motre-Teri}
\bibcite{Motre2000}{Motre2000}
\bibcite{Moulding95a}{Moulding95a}
\bibcite{NFM96-DT}{NFM96-DT}
\bibcite{Nei91}{Nei91}
\bibcite{Neilson94}{Neilson94}
\bibcite{Okalas-PhD}{Okalas-PhD}
\bibcite{PRA95b}{PRA95b}
\bibcite{Parreaux-PhD}{Parreaux-PhD}
\bibcite{Petit-PhD}{Petit-PhD}
\bibcite{Plosila-2000}{Plosila-2000}
\bibcite{RBH94}{RBH94}
\bibcite{RODIN-BEvt}{RODIN-BEvt}
\bibcite{Requet00}{Requet00}
\bibcite{Robinson97}{Robinson97}
\bibcite{SAC06-Fekih}{SAC06-Fekih}
\bibcite{SCI04-Boulanger}{SCI04-Boulanger}
\bibcite{SH94}{SH94}
\bibcite{SOFSEM95}{SOFSEM95}
\bibcite{Schneider05}{Schneider05}
\bibcite{Schneider2002}{Schneider2002}
\bibcite{Sekerinski2001}{Sekerinski2001}
\bibcite{Sekerinski2002}{Sekerinski2002}
\bibcite{Snook-2002}{Snook-2002}
\bibcite{Snook-2003}{Snook-2003}
\bibcite{Sorensen2001}{Sorensen2001}
\bibcite{Sorensen94}{Sorensen94}
\bibcite{Sto92}{Sto92}
\bibcite{Stoddart94}{Stoddart94}
\bibcite{Stoddart99}{Stoddart99}
\bibcite{TSI20-Julliand}{TSI20-Julliand}
\bibcite{TSI21-Boite}{TSI21-Boite}
\bibcite{TSI22-Abrial}{TSI22-Abrial}
\bibcite{TSI22-Burdy}{TSI22-Burdy}
\bibcite{TSI22-Dolle}{TSI22-Dolle}
\bibcite{TSI22-Potet}{TSI22-Potet}
\bibcite{TTV96}{TTV96}
\bibcite{TUCS-TR-53}{TUCS-TR-53}
\bibcite{Tatibouet2001}{Tatibouet2001}
\bibcite{Tatibouet2003}{Tatibouet2003}
\bibcite{Thuan-PhD}{Thuan-PhD}
\bibcite{Traverson-PhD}{Traverson-PhD}
\bibcite{Traverson97}{Traverson97}
\bibcite{Treharne99a}{Treharne99a}
\bibcite{Treharne99b}{Treharne99b}
\bibcite{Treharne:IFM99}{Treharne:IFM99}
\bibcite{UMLB}{UMLB}
\bibcite{UMLB-Kronlof}{UMLB-Kronlof}
\bibcite{UMLB-Voros}{UMLB-Voros}
\bibcite{VDM88}{VDM88}
\bibcite{VDM91}{VDM91}
\bibcite{VoisinetTJ05}{VoisinetTJ05}
\bibcite{WB95}{WB95}
\bibcite{Waeselynck97a}{Waeselynck97a}
\bibcite{Waeselynck97b}{Waeselynck97b}
\bibcite{Watrin01}{Watrin01}
\bibcite{Watson97}{Watson97}
\bibcite{Wordsworth96}{Wordsworth96}
\bibcite{Z2B-BDW95}{Z2B-BDW95}
\bibcite{Z2B-Chauvet95}{Z2B-Chauvet95}
\bibcite{Z2B-Docherty95}{Z2B-Docherty95}
\citation{B96-Habrias}
\bibcite{Z2B-Pratten95}{Z2B-Pratten95}
\bibcite{ZB00}{ZB00}
\bibcite{ZB00-Banach}{ZB00-Banach}
\citation{ZB00}
\bibcite{ZB00-Bellegarde}{ZB00-Bellegarde}
\citation{ZB00}
\bibcite{ZB00-Bontron}{ZB00-Bontron}
\citation{ZB00}
\bibcite{ZB00-Butler}{ZB00-Butler}
\citation{ZB00}
\bibcite{ZB00-Cansell}{ZB00-Cansell}
\citation{ZB00}
\bibcite{ZB00-Dimitrakos}{ZB00-Dimitrakos}
\citation{ZB00}
\bibcite{ZB00-Laleau}{ZB00-Laleau}
\citation{ZB00}
\bibcite{ZB00-Lanet}{ZB00-Lanet}
\bibcite{ZB00-Lopez}{ZB00-Lopez}
\citation{ZB00}
\bibcite{ZB00-Robinson}{ZB00-Robinson}
\citation{ZB00}
\bibcite{ZB00-Stoddart}{ZB00-Stoddart}
\citation{ZB00}
\bibcite{ZB00-Treharne}{ZB00-Treharne}
\citation{ZB00}
\bibcite{ZB02}{ZB02}
\bibcite{ZB02-Abrial}{ZB02-Abrial}
\citation{ZB02}
\bibcite{ZB02-Abrial2}{ZB02-Abrial2}
\citation{ZB02}
\bibcite{ZB02-Bellegarde}{ZB02-Bellegarde}
\citation{ZB02}
\bibcite{ZB02-Bellegarde2}{ZB02-Bellegarde2}
\citation{ZB02}
\bibcite{ZB02-Blow}{ZB02-Blow}
\citation{ZB02}
\bibcite{ZB02-Bodeveix}{ZB02-Bodeveix}
\citation{ZB02}
\bibcite{ZB02-Cansell}{ZB02-Cansell}
\citation{ZB02}
\bibcite{ZB02-Chartier}{ZB02-Chartier}
\citation{ZB02}
\bibcite{ZB02-Doche}{ZB02-Doche}
\citation{ZB02}
\bibcite{ZB02-Dunne}{ZB02-Dunne}
\citation{ZB02}
\bibcite{ZB02-Laleau}{ZB02-Laleau}
\citation{ZB02}
\bibcite{ZB02-Legeard}{ZB02-Legeard}
\citation{ZB02}
\bibcite{ZB02-Mikhailov}{ZB02-Mikhailov}
\citation{ZB02}
\bibcite{ZB02-Papatsaras}{ZB02-Papatsaras}
\citation{ZB02}
\bibcite{ZB02-Poppleton}{ZB02-Poppleton}
\citation{ZB02}
\bibcite{ZB02-Schneider}{ZB02-Schneider}
\citation{ZB02}
\bibcite{ZB03}{ZB03}
\bibcite{ZB03-Abrial}{ZB03-Abrial}
\citation{ZB03}
\bibcite{ZB03-Abrial2}{ZB03-Abrial2}
\citation{ZB03}
\bibcite{ZB03-Aguirre}{ZB03-Aguirre}
\citation{ZB03}
\bibcite{ZB03-Blazy}{ZB03-Blazy}
\citation{ZB03}
\bibcite{ZB03-Burdy}{ZB03-Burdy}
\citation{ZB03}
\bibcite{ZB03-Dunne}{ZB03-Dunne}
\citation{ZB03}
\bibcite{ZB03-Ferreira}{ZB03-Ferreira}
\citation{ZB03}
\bibcite{ZB03-Frappier}{ZB03-Frappier}
\citation{ZB03}
\bibcite{ZB03-Hallerstede}{ZB03-Hallerstede}
\citation{ZB03}
\bibcite{ZB03-MacIver}{ZB03-MacIver}
\citation{ZB03}
\bibcite{ZB03-Morgan}{ZB03-Morgan}
\citation{ZB03}
\bibcite{ZB03-Poerschke}{ZB03-Poerschke}
\citation{ZB03}
\bibcite{ZB03-Pouzancre}{ZB03-Pouzancre}
\citation{ZB03}
\bibcite{ZB03-Stoddart}{ZB03-Stoddart}
\citation{ZB03}
\bibcite{ZB03-Treharne}{ZB03-Treharne}
\citation{ZB03}
\bibcite{ZB05}{ZB05}
\bibcite{ZB05-Abrial}{ZB05-Abrial}
\citation{ZB05}
\bibcite{ZB05-Attiogbe}{ZB05-Attiogbe}
\citation{ZB05}
\bibcite{ZB05-Badeau}{ZB05-Badeau}
\citation{ZB05}
\bibcite{ZB05-Banach}{ZB05-Banach}
\citation{ZB05}
\bibcite{ZB05-Bert}{ZB05-Bert}
\citation{ZB05}
\bibcite{ZB05-Bostrom}{ZB05-Bostrom}
\bibcite{ZB05-Bouquet}{ZB05-Bouquet}
\citation{ZB05}
\bibcite{ZB05-Dunne}{ZB05-Dunne}
\citation{ZB05}
\bibcite{ZB05-Hoang}{ZB05-Hoang}
\citation{ZB05}
\bibcite{ZB05-Leuschel}{ZB05-Leuschel}
\citation{ZB05}
\bibcite{ZB05-Morgan}{ZB05-Morgan}
\bibcite{ZB05-Rezazadeh}{ZB05-Rezazadeh}
\citation{ZB05}
\bibcite{ZB05-Zeyda}{ZB05-Zeyda}
\citation{ZB05}
\bibcite{ZB05-Zimmermann}{ZB05-Zimmermann}
\citation{ZB05}
\bibcite{arago20}{arago20}
\bibcite{eventb-reference-manual}{eventb-reference-manual}
\bibcite{matisse-cir}{matisse-cir}
\bibcite{matisse-dis}{matisse-dis}
\bibcite{matisse-fg}{matisse-fg}
\bibcite{matisse-pap}{matisse-pap}
\bibcite{reactive-B}{reactive-B}
\bibcite{zum94:Diller}{zum94:Diller}
\global\mtcsecondpartfalse
\newlabel{lastpage}{{}{59}}
\newlabel{LastPage}{{}{59}}
