\relax 
\catcode`:\active
\catcode`;\active
\catcode`!\active
\catcode`?\active
\citation{AFADL04-Barradas}
\citation{AFADL04-Couchot}
\citation{AFADL04-Mammar}
\citation{AFADL04-Okalas}
\citation{AFADL04-Stouls}
\citation{AFADL04-Truong}
\citation{AFADL2000-Bodeveix}
\citation{AFADL2000-Bon}
\citation{AFADL2000-Cave}
\citation{AFADL2000-Marcano}
\citation{AFADL2000-Motre}
\citation{AFADL2000-Mountassir}
\citation{AFADL2000-Py}
\citation{AFADL2000}
\citation{AFADL2001-Bert}
\citation{AFADL2001-Boite}
\citation{AFADL2001-Cansell}
\citation{AFADL2001-Casset}
\citation{AFADL2001-Charlet}
\citation{AFADL2001-Chouali}
\citation{AFADL2001-Ledang}
\citation{AFADL2001-Ledoux}
\citation{AFADL2001-Legeard}
\citation{AFADL2001-Marcano}
\citation{AFADL2001}
\citation{AFADL2003-Badeau}
\citation{AFADL2003-Berkani}
\citation{AFADL2003-Bodeveix}
\citation{AFADL2003-Bouquet}
\citation{AFADL2003-Hammad}
\citation{AFADL2003-Ledang}
\citation{AFADL2003-Petit}
\citation{AFADL2003}
\citation{AFADL2004}
\citation{AFADL98-Julliand}
\citation{AFADL98-Lanet}
\citation{AFADL98-Ledru}
\citation{AFADL98-Ledru2}
\citation{AFADL98}
\citation{AFM-DeMe}
\citation{AFM-JHoare}
\citation{AFM95}
\citation{ALNS91}
\citation{AVIS2001-Bellegarde}
\citation{Abri84a}
\citation{Abri84b}
\citation{Abri88a}
\citation{Abri88b}
\citation{Abri89}
\citation{Abri91}
\citation{Abri92}
\citation{Abrial88}
\citation{Abrial98}
\citation{Abrial:1998:B}
\citation{Aertryck97a}
\citation{Aertryck97b}
\citation{Aertryck98-PhD}
\citation{Ait-Ameur-ISPS03}
\citation{Ait-Ameur-SERP03}
\citation{Alnet96}
\citation{Ameur98a}
\citation{Ameur98b}
\citation{Attiogbe97}
\citation{B-DC}
\citation{B96-Abrial}
\citation{B96-Behm}
\citation{B96-Bert}
\citation{B96-Burdy}
\citation{B96-Butler}
\citation{B96-Chauvet}
\citation{B96-Clutterbuck}
\citation{B96-Draper}
\citation{B96-Dune}
\citation{B96-El-Koursi}
\citation{B96-Facon}
\citation{B96-Fraer}
\citation{B96-Habrias}
\citation{B96-Lano}
\citation{B96-Lopez}
\citation{B96-Mery}
\citation{B96-Robinson}
\citation{B96-Shore}
\citation{B98-Abrial}
\citation{B98-Banach}
\citation{B98-Behm}
\citation{B98-Chartier}
\citation{B98-Ducasse}
\citation{B98-Heuberger}
\citation{B98-Julliand}
\citation{B98-Malioukov}
\citation{B98-Matthews}
\citation{B98-Petin}
\citation{B98-Potet}
\citation{B98-Sekerinski}
\citation{B98-Stoddart}
\citation{B98-Traverson}
\citation{B98-Treharne}
\citation{B98-Walden}
\citation{B98}
\citation{B98-educational}
\citation{BB94}
\citation{BBLW93}
\citation{BBook}
\citation{BUGM99}
\citation{BUGM99-Bellegarde}
\citation{BUGM99-Bodeveix}
\citation{BUGM99-Burdy}
\citation{BUGM99-Butler}
\citation{BUGM99-Lano}
\citation{BUGM99-Lopez}
\citation{BUGM99-Stoddart}
\citation{BUGM99-Treharne}
\citation{BUT-Bicarregui95}
\citation{BUT-D2}
\citation{BUT-D8}
\citation{Baron-2003}
\citation{Bcases98}
\citation{Bcases98-Robinson}
\citation{Behm93}
\citation{Behm97}
\citation{Behnia-PhD}
\citation{Behnia98}
\citation{Bert-2002}
\citation{Bert2003}
\citation{BiRi93}
\citation{BiRi95}
\citation{Bicarregui95}
\citation{Bicarregui97}
\citation{Bicarregui98}
\citation{Bieber96a}
\citation{Bieber96b}
\citation{Bon-PhD}
\citation{Bos92}
\citation{Boulanger2001}
\citation{Bro93}
\citation{Btoolkit}
\citation{BuechiICFEM98}
\citation{Burdy-PhD}
\citation{Butler02}
\citation{CADE15}
\citation{CBD2002-Petit}
\citation{CCL97-Cirstea}
\citation{CDDM92}
\citation{CLPSB:STTT}
\citation{Cha92}
\citation{Colin-PhD}
\citation{Couchot2003}
\citation{DDM91}
\citation{DM94}
\citation{DM94b}
\citation{DSSE-TR-96-6}
\citation{DSSE-TR-99-2}
\citation{Diller93b}
\citation{Docherty93}
\citation{EJC2000-JRA1}
\citation{EJC2000-JRA2}
\citation{EJC2000-JRA3}
\citation{Moulding95a}
\citation{ESTAS-RT1999-25}
\citation{FACIT-Frappier}
\citation{FEM98-Waeselynck}
\citation{FM99-Behnia}
\citation{FM99-Buchi}
\citation{FM99-Butler}
\citation{FM99-Dunne}
\citation{FM99-I}
\citation{FM99-II}
\citation{FM99-MATRA}
\citation{FM99-Matthews}
\citation{FM99-Meyer}
\citation{FM99-Munoz}
\citation{FM99-Rouzaud}
\citation{FM99-Sabatier}
\citation{FME03-Butler}
\citation{FME2001-Bellegarde}
\citation{FME96-Lano}
\citation{FMP97}
\citation{FORMS04-Marcano}
\citation{FORMS04-Boulanger}
\citation{FORMS04}
\citation{FORMS2003-Petit}
\citation{Faivre99}
\citation{GSW93}
\citation{Gue95}
\citation{HASE00-Requet}
\citation{HL94a}
\citation{Habrias2001}
\citation{Haughton96}
\citation{Hoa95}
\citation{Hoare96}
\citation{IDPT2003-Petit}
\citation{IFM2000-Bert}
\citation{IFM2000-Julliand}
\citation{IFM2000-Meyer}
\citation{JFLA2002-Petit}
\citation{LH94a}
\citation{LM02000-Marcano}
\citation{LS90}
\citation{LS91}
\citation{LSS91b}
\citation{LaFi96}
\citation{LaHa96}
\citation{Lafontaine90}
\citation{Lafontaine91}
\citation{Laleau-2000}
\citation{Laleau00}
\citation{Laleau2001}
\citation{Lanet98}
\citation{Lanet98b}
\citation{Lano95}
\citation{Lano96}
\citation{Lee91}
\citation{Levy02a}
\citation{Marcano00c}
\citation{Marcano02a}
\citation{Marcano02b}
\citation{Marcano-PhD}
\citation{Mariano-PhD}
\citation{Mariano96}
\citation{Masson-2001}
\citation{Mejia93}
\citation{Mejia97}
\citation{Mermet96}
\citation{Meyer-PhD}
\citation{Motre-Teri}
\citation{Motre2000}
\citation{NFM96-DT}
\citation{Nei91}
\citation{Neilson94}
\citation{PRA95b}
\citation{Parreaux-PhD}
\citation{Petit-PhD}
\citation{Plosila-2000}
\citation{RBH94}
\citation{Requet00}
\citation{Robinson97}
\citation{SCI04-Boulanger}
\citation{SH94}
\citation{SOFSEM95}
\citation{Schneider2002}
\citation{Snook-2002}
\citation{Snook-2003}
\citation{Sorensen94}
\citation{Sto92}
\citation{Stoddart94}
\citation{Stoddart99}
\citation{TSI21-Boite}
\citation{TSI20-Julliand}
\citation{TTV96}
\citation{TUCS-TR-53}
\citation{Tatibouet2001}
\citation{Tatibouet2003}
\citation{Traverson-PhD}
\citation{Traverson97}
\citation{Treharne99a}
\citation{Treharne99b}
\citation{Treharne:IFM99}
\citation{VDM88}
\citation{VDM91}
\citation{WB95}
\citation{Waeselynck97a}
\citation{Waeselynck97b}
\citation{Watrin01}
\citation{Watson97}
\citation{Wordsworth96}
\citation{Z2B-BDW95}
\citation{Z2B-Chauvet95}
\citation{Z2B-Docherty95}
\citation{Z2B-Pratten95}
\citation{ZB00-Banach}
\citation{ZB00-Bellegarde}
\citation{ZB00-Bontron}
\citation{ZB00-Butler}
\citation{ZB00-Cansell}
\citation{ZB00-Dimitrakos}
\citation{ZB00-Laleau}
\citation{ZB00-Lanet}
\citation{ZB00-Lopez}
\citation{ZB00-Robinson}
\citation{ZB00-Stoddart}
\citation{ZB00-Treharne}
\citation{ZB00}
\citation{ZB02-Abrial}
\citation{ZB02-Abrial2}
\citation{ZB02-Bellegarde}
\citation{ZB02-Bellegarde2}
\citation{ZB02-Blow}
\citation{ZB02-Bodeveix}
\citation{ZB02-Cansell}
\citation{ZB02-Chartier}
\citation{ZB02-Doche}
\citation{ZB02-Dunne}
\citation{ZB02-Laleau}
\citation{ZB02-Legeard}
\citation{ZB02-Mikhailov}
\citation{ZB02-Papatsaras}
\citation{ZB02-Poppleton}
\citation{ZB02-Schneider}
\citation{ZB02}
\citation{ZB03}
\citation{ZB03-Abrial}
\citation{ZB03-Abrial2}
\citation{ZB03-Aguirre}
\citation{ZB03-Blazy}
\citation{ZB03-Burdy}
\citation{ZB03-Dunne}
\citation{ZB03-Ferreira}
\citation{ZB03-Frappier}
\citation{ZB03-Hallerstede}
\citation{ZB03-MacIver}
\citation{ZB03-Morgan}
\citation{ZB03-Poerschke}
\citation{ZB03-Pouzancre}
\citation{ZB03-Stoddart}
\citation{ZB03-Treharne}
\citation{arago20}
\citation{Bicarregui99}
\citation{Bieber95}
\citation{eventb-reference-manual}
\citation{Jambon-2001}
\citation{matisse-cir}
\citation{matisse-dis}
\citation{matisse-fg}
\citation{matisse-pap}
\citation{reactive-B}
\citation{Sekerinski2001}
\citation{Sekerinski2002}
\citation{zum94:Diller}
\citation{BRILLANT05a}
\citation{ASM05-Butler}
\citation{EDCC4}
\citation{Mariano2002}
\citation{AFIS02}
\citation{INRETS01-717}
\citation{INRETS9925}
\citation{ICSSEA01}
\citation{RODIN-BEvt}
\citation{Schneider05}
\citation{ZB05-Leuschel}
\citation{ZB05-Dunne}
\citation{ZB05-Attiogbe}
\citation{ZB05-Bostrom}
\citation{ZB05-Morgan}
\citation{ZB05-Zeyda}
\citation{ZB05-Banach}
\citation{ZB05-Abrial}
\citation{ZB05-Zimmermann}
\citation{ZB05-Bert}
\citation{ZB05-Badeau}
\citation{ZB05-Hoang}
\citation{ZB05-Bouquet}
\citation{ZB05-Rezazadeh}
\citation{Aljer2003}
\citation{ZB05}
\citation{Aljer2003b}
\citation{AbrialDSM}
\citation{J3ea05-boulanger}
\citation{TSI22-Dolle}
\citation{TSI22-Burdy}
\citation{TSI22-Potet}
\citation{TSI22-Abrial}
\citation{Lanet2004}
\citation{ICFEM2005}
\citation{ICFEM2005-Idani}
\citation{AFADL06-Idani}
\citation{AFADL06}
\citation{Laleau2006}
\citation{IFM05-Bostrom}
\citation{IFM05-Okalas}
\citation{IFM05-Bodeveix}
\citation{IFM05-Gervais}
\citation{IFM05-Schneider}
\citation{IFM05}
\citation{IFM04-Lano}
\citation{IFM04}
\citation{SAC06-Fekih}
\citation{VoisinetTJ05}
\citation{ENTCS-Idani}
\citation{HDR-Potet}
\citation{B07}
\citation{B07-Jaffuel}
\citation{B07-Chemouil}
\citation{B07-Boulme}
\citation{B07-Dunne}
\citation{B07-Ifill}
\citation{B07-Hallerstede}
\citation{B07-Yang}
\citation{B07-Leuschel}
\citation{B07-Bouquet}
\citation{B07-Groslambert}
\citation{B07-Chan}
\citation{B07-Cansell}
\citation{B07-Stoddart}
\citation{B07-Snook}
\citation{B07-Bostrom}
\citation{B07-Gervais}
\citation{B07-Stouls}
\citation{B07-Benaissa}
\citation{B07-Oliver}
\citation{B07-Essame}
\citation{B07-Clabaut}
\citation{B07-Hoffmann}
\citation{B07-Evans}
\citation{B07-Bendisposto-b}
\citation{B07-Bendisposto}
\citation{B07-Servat}
\citation{B07-JaffuelL}
\citation{B07-Haddad}
\citation{B07-Bouquet-b}
\citation{Okalas-PhD}
\citation{Thuan-PhD}
\citation{Sorensen2001}
\citation{Gervais-PhD}
\citation{JFLA04-Rocheteau}
\citation{FDL06-Oliver}
\citation{MOSIM06-Mosbahi}
\citation{MOSIM06-Fadil}
\citation{CPA07-Ifill}
\citation{CPA07-McEwan}
\citation{CPA07-Grant}
\citation{CPA07-Yang}
\citation{CPA07}
\citation{UMLB}
\citation{UMLB-Kronlof}
\citation{UMLB-Voros}
\citation{Gomes2007}
\citation{LPAR07-Jaeger}
\bibdata{../Bmethod}
\bibcite{BUGM99}{1}
\bibcite{ZB00}{2}
\bibcite{IFM04}{3}
\bibcite{IFM05}{4}
\bibcite{Abri84b}{5}
\bibcite{Abri84a}{6}
\bibcite{Abrial88}{7}
\bibcite{Abri88a}{8}
\bibcite{Abri88b}{9}
\select@language{francais}
\@writefile{toc}{\select@language{francais}}
\@writefile{lof}{\select@language{francais}}
\@writefile{lot}{\select@language{francais}}
\bibcite{Abri89}{10}
\bibcite{Abri91}{11}
\bibcite{Abri92}{12}
\bibcite{BBook}{13}
\bibcite{B96-Abrial}{14}
\citation{B96-Habrias}
\bibcite{Abrial:1998:B}{15}
\bibcite{EJC2000-JRA1}{16}
\bibcite{EJC2000-JRA2}{17}
\bibcite{matisse-cir}{18}
\bibcite{EJC2000-JRA3}{19}
\bibcite{matisse-pap}{20}
\bibcite{matisse-fg}{21}
\bibcite{matisse-dis}{22}
\bibcite{AbrialDSM}{23}
\bibcite{TSI22-Abrial}{24}
\bibcite{ZB03-Abrial}{25}
\citation{ZB03}
\bibcite{ZB02-Abrial2}{26}
\citation{ZB02}
\bibcite{ZB03-Abrial2}{27}
\citation{ZB03}
\bibcite{ZB05-Abrial}{28}
\citation{ZB05}
\bibcite{ALNS91}{29}
\bibcite{Abrial98}{30}
\bibcite{B98-Abrial}{31}
\citation{B98}
\bibcite{ZB02-Abrial}{32}
\citation{ZB02}
\bibcite{AFADL98}{33}
\bibcite{AFADL2000}{34}
\bibcite{AFADL2001}{35}
\bibcite{AFADL2003}{36}
\bibcite{AFADL2004}{37}
\bibcite{ZB03-Aguirre}{38}
\citation{ZB03}
\bibcite{Ait-Ameur-SERP03}{39}
\bibcite{Ait-Ameur-ISPS03}{40}
\bibcite{Ameur98b}{41}
\bibcite{Ameur98a}{42}
\bibcite{Aljer2003}{43}
\bibcite{Aljer2003b}{44}
\bibcite{Alnet96}{45}
\bibcite{Btoolkit}{46}
\bibcite{Attiogbe97}{47}
\bibcite{ZB05-Attiogbe}{48}
\citation{ZB05}
\bibcite{ZB05-Badeau}{49}
\citation{ZB05}
\bibcite{AFADL2003-Badeau}{50}
\citation{AFADL2003}
\bibcite{ZB05-Banach}{51}
\citation{ZB05}
\bibcite{B98-Banach}{52}
\citation{B98}
\bibcite{ZB00-Banach}{53}
\citation{ZB00}
\bibcite{Baron-2003}{54}
\bibcite{Behm93}{55}
\bibcite{B96-Behm}{56}
\citation{B96-Habrias}
\bibcite{FM99-MATRA}{57}
\citation{FM99-I}
\bibcite{B98-Behm}{58}
\citation{B98}
\bibcite{Behm97}{59}
\citation{arago20}
\bibcite{Behnia-PhD}{60}
\bibcite{Behnia98}{61}
\bibcite{FM99-Behnia}{62}
\citation{FM99-I}
\bibcite{AFADL2001-Charlet}{63}
\citation{AFADL2001}
\bibcite{ZB02-Bellegarde2}{64}
\citation{ZB02}
\bibcite{AFADL2001-Chouali}{65}
\citation{AFADL2001}
\bibcite{ZB00-Bellegarde}{66}
\citation{ZB00}
\bibcite{AVIS2001-Bellegarde}{67}
\bibcite{FME2001-Bellegarde}{68}
\bibcite{ZB02-Bellegarde}{69}
\citation{ZB02}
\bibcite{BUGM99-Bellegarde}{70}
\citation{BUGM99}
\bibcite{B07-Benaissa}{71}
\citation{B07}
\bibcite{B07-Bendisposto}{72}
\citation{B07}
\bibcite{B07-Bendisposto-b}{73}
\citation{B07}
\bibcite{AFADL2003-Berkani}{74}
\citation{AFADL2003}
\bibcite{B98}{75}
\bibcite{AFADL2001-Bert}{76}
\citation{AFADL2001}
\bibcite{Bert-2002}{77}
\bibcite{Bert2003}{78}
\bibcite{ZB03}{79}
\bibcite{IFM2000-Bert}{80}
\bibcite{B96-Bert}{81}
\citation{B96-Habrias}
\bibcite{ZB05-Bert}{82}
\citation{ZB05}
\bibcite{Z2B-BDW95}{83}
\bibcite{BUT-D8}{84}
\bibcite{BiRi93}{85}
\bibcite{BiRi95}{86}
\citation{BiRi93}
\bibcite{BUT-Bicarregui95}{87}
\bibcite{Bicarregui97}{88}
\bibcite{Bicarregui99}{89}
\bibcite{Bicarregui95}{90}
\bibcite{SOFSEM95}{91}
\bibcite{Bieber95}{92}
\bibcite{Bieber96b}{93}
\bibcite{Bieber96a}{94}
\bibcite{BB94}{95}
\bibcite{BBLW93}{96}
\bibcite{ZB03-Blazy}{97}
\citation{ZB03}
\bibcite{VDM88}{98}
\bibcite{ZB02-Blow}{99}
\citation{ZB02}
\bibcite{ZB02-Bodeveix}{100}
\citation{ZB02}
\bibcite{AFADL2003-Bodeveix}{101}
\citation{AFADL2003}
\bibcite{IFM05-Bodeveix}{102}
\citation{IFM05}
\bibcite{BUGM99-Bodeveix}{103}
\citation{BUGM99}
\bibcite{AFADL2000-Bodeveix}{104}
\citation{AFADL2000}
\bibcite{AFADL2001-Boite}{105}
\citation{AFADL2001}
\bibcite{TSI21-Boite}{106}
\bibcite{Bon-PhD}{107}
\bibcite{AFADL2000-Bon}{108}
\citation{AFADL2000}
\bibcite{ZB00-Bontron}{109}
\citation{ZB00}
\bibcite{Bos92}{110}
\bibcite{B07-Bostrom}{111}
\citation{B07}
\bibcite{IFM05-Bostrom}{112}
\citation{IFM05}
\bibcite{ZB05-Bostrom}{113}
\bibcite{SCI04-Boulanger}{114}
\bibcite{J3ea05-boulanger}{115}
\bibcite{EDCC4}{116}
\bibcite{INRETS01-717}{117}
\bibcite{FORMS04-Boulanger}{118}
\citation{FORMS04}
\bibcite{INRETS9925}{119}
\bibcite{AFIS02}{120}
\bibcite{ICSSEA01}{121}
\bibcite{Boulanger2001}{122}
\bibcite{B07-Boulme}{123}
\citation{B07}
\bibcite{B07-Bouquet}{124}
\citation{B07}
\bibcite{ZB05-Bouquet}{125}
\citation{ZB05}
\bibcite{B07-Bouquet-b}{126}
\citation{B07}
\bibcite{AFADL2003-Bouquet}{127}
\citation{AFADL2003}
\bibcite{CLPSB:STTT}{128}
\bibcite{Bro93}{129}
\bibcite{BuechiICFEM98}{130}
\bibcite{FM99-Buchi}{131}
\citation{FM99-I}
\bibcite{B96-Burdy}{132}
\citation{B96-Habrias}
\bibcite{Burdy-PhD}{133}
\bibcite{TSI22-Burdy}{134}
\bibcite{BUGM99-Burdy}{135}
\citation{BUGM99}
\bibcite{ZB03-Burdy}{136}
\citation{ZB03}
\bibcite{DSSE-TR-96-6}{137}
\bibcite{FM99-Butler}{138}
\citation{FM99-I}
\bibcite{DSSE-TR-99-2}{139}
\bibcite{BUGM99-Butler}{140}
\citation{BUGM99}
\bibcite{Butler02}{141}
\bibcite{ASM05-Butler}{142}
\bibcite{ZB00-Butler}{143}
\citation{ZB00}
\bibcite{B96-Butler}{144}
\citation{B96-Habrias}
\bibcite{TUCS-TR-53}{145}
\bibcite{ZB02-Cansell}{146}
\citation{ZB02}
\bibcite{AFADL2001-Cansell}{147}
\citation{AFADL2001}
\bibcite{ZB00-Cansell}{148}
\citation{ZB00}
\bibcite{B07-Cansell}{149}
\citation{B07}
\bibcite{CDDM92}{150}
\bibcite{AFADL2001-Casset}{151}
\citation{AFADL2001}
\bibcite{AFADL2000-Cave}{152}
\citation{AFADL2000}
\bibcite{AFADL06}{153}
\bibcite{B07-Chan}{154}
\citation{B07}
\bibcite{Cha92}{155}
\bibcite{B98-Chartier}{156}
\citation{B98}
\bibcite{ZB02-Chartier}{157}
\citation{ZB02}
\bibcite{Z2B-Chauvet95}{158}
\bibcite{B96-Chauvet}{159}
\citation{B96-Habrias}
\bibcite{B07-Chemouil}{160}
\citation{B07}
\bibcite{CCL97-Cirstea}{161}
\bibcite{CADE15}{162}
\bibcite{B07-Clabaut}{163}
\citation{B07}
\bibcite{eventb-reference-manual}{164}
\bibcite{B96-Clutterbuck}{165}
\citation{B96-Habrias}
\bibcite{Colin-PhD}{166}
\bibcite{B-DC}{167}
\bibcite{BRILLANT05a}{168}
\bibcite{Couchot2003}{169}
\bibcite{AFADL04-Couchot}{170}
\citation{AFADL2004}
\bibcite{DDM91}{171}
\bibcite{Mejia93}{172}
\bibcite{DM94}{173}
\bibcite{DM94b}{174}
\bibcite{AFM-DeMe}{175}
\citation{AFM95}
\bibcite{CPA07}{176}
\bibcite{FACIT-Frappier}{177}
\bibcite{Diller93b}{178}
\bibcite{zum94:Diller}{179}
\bibcite{ZB00-Dimitrakos}{180}
\citation{ZB00}
\bibcite{ZB02-Doche}{181}
\citation{ZB02}
\bibcite{Docherty93}{182}
\bibcite{Z2B-Docherty95}{183}
\citation{B96-Habrias}
\bibcite{TSI22-Dolle}{184}
\bibcite{B96-Draper}{185}
\citation{B96-Habrias}
\bibcite{NFM96-DT}{186}
\bibcite{B98-Ducasse}{187}
\citation{B98-educational}
\bibcite{FM99-Dunne}{188}
\citation{FM99-I}
\bibcite{ZB02-Dunne}{189}
\citation{ZB02}
\bibcite{ZB03-Dunne}{190}
\citation{ZB03}
\bibcite{B07-Dunne}{191}
\citation{B07}
\bibcite{ZB05-Dunne}{192}
\citation{ZB05}
\bibcite{B96-Dune}{193}
\citation{B96-Habrias}
\bibcite{B96-El-Koursi}{194}
\citation{B96-Habrias}
\bibcite{B07-Essame}{195}
\citation{B07}
\bibcite{B07-Evans}{196}
\citation{B07}
\bibcite{B96-Facon}{197}
\citation{B96-Habrias}
\bibcite{Laleau-2000}{198}
\bibcite{MOSIM06-Fadil}{199}
\bibcite{Faivre99}{200}
\bibcite{SAC06-Fekih}{201}
\bibcite{ZB03-Ferreira}{202}
\citation{ZB03}
\bibcite{B96-Fraer}{203}
\citation{B96-Habrias}
\bibcite{ZB03-Frappier}{204}
\citation{ZB03}
\bibcite{Gervais-PhD}{205}
\bibcite{IFM05-Gervais}{206}
\citation{IFM05}
\bibcite{B07-Gervais}{207}
\citation{B07}
\bibcite{Gomes2007}{208}
\bibcite{CPA07-Grant}{209}
\citation{CPA07}
\bibcite{B07-Groslambert}{210}
\citation{B07}
\bibcite{Gue95}{211}
\bibcite{GSW93}{212}
\bibcite{B96-Habrias}{213}
\bibcite{Habrias2001}{214}
\bibcite{B98-educational}{215}
\bibcite{B07-Haddad}{216}
\citation{B07}
\bibcite{ZB03-Hallerstede}{217}
\citation{ZB03}
\bibcite{B07-Hallerstede}{218}
\citation{B07}
\bibcite{AFADL2003-Hammad}{219}
\citation{AFADL2003}
\bibcite{Haughton96}{220}
\bibcite{HL94a}{221}
\bibcite{B98-Heuberger}{222}
\citation{B98}
\bibcite{AFM95}{223}
\bibcite{ZB03-Morgan}{224}
\citation{ZB03}
\bibcite{ZB05-Hoang}{225}
\citation{ZB05}
\bibcite{Hoare96}{226}
\bibcite{AFM-JHoare}{227}
\citation{AFM95}
\bibcite{Hoa95}{228}
\bibcite{B07-Hoffmann}{229}
\citation{B07}
\bibcite{AFADL06-Idani}{230}
\citation{AFADL06}
\bibcite{ENTCS-Idani}{231}
\bibcite{ICFEM2005-Idani}{232}
\citation{ICFEM2005}
\bibcite{CPA07-Ifill}{233}
\citation{CPA07}
\bibcite{B07-Ifill}{234}
\citation{B07}
\bibcite{LPAR07-Jaeger}{235}
\bibcite{B07-Jaffuel}{236}
\citation{B07}
\bibcite{B07-JaffuelL}{237}
\citation{B07}
\bibcite{Jambon-2001}{238}
\bibcite{AFADL98-Julliand}{239}
\citation{AFADL98}
\bibcite{B07}{240}
\bibcite{B98-Julliand}{241}
\citation{B98}
\bibcite{IFM2000-Julliand}{242}
\bibcite{TSI20-Julliand}{243}
\bibcite{UMLB-Kronlof}{244}
\bibcite{Lafontaine90}{245}
\bibcite{Lafontaine91}{246}
\bibcite{ZB00-Laleau}{247}
\citation{ZB00}
\bibcite{Laleau00}{248}
\bibcite{Laleau2006}{249}
\bibcite{Laleau2001}{250}
\bibcite{ZB02-Laleau}{251}
\citation{ZB02}
\bibcite{AFADL98-Lanet}{252}
\citation{AFADL98}
\bibcite{ZB00-Lanet}{253}
\bibcite{Lanet2004}{254}
\bibcite{Lanet98}{255}
\bibcite{Lanet98b}{256}
\bibcite{Lano96}{257}
\bibcite{FME96-Lano}{258}
\bibcite{reactive-B}{259}
\bibcite{B96-Lano}{260}
\citation{B96-Habrias}
\bibcite{BUGM99-Lano}{261}
\citation{BUGM99}
\bibcite{Bicarregui98}{262}
\bibcite{IFM04-Lano}{263}
\citation{IFM04}
\bibcite{LaFi96}{264}
\bibcite{LH94a}{265}
\bibcite{Lano95}{266}
\bibcite{LaHa96}{267}
\bibcite{ICFEM2005}{268}
\bibcite{AFADL2001-Ledang}{269}
\citation{AFADL2001}
\bibcite{AFADL2003-Ledang}{270}
\citation{AFADL2003}
\bibcite{AFADL2001-Ledoux}{271}
\citation{AFADL2001}
\bibcite{AFADL98-Ledru2}{272}
\citation{AFADL98}
\bibcite{AFADL98-Ledru}{273}
\citation{AFADL98}
\bibcite{LS90}{274}
\bibcite{LS91}{275}
\bibcite{Lee91}{276}
\bibcite{LSS91b}{277}
\bibcite{AFADL2001-Legeard}{278}
\citation{AFADL2001}
\bibcite{ZB02-Legeard}{279}
\citation{ZB02}
\bibcite{B07-Leuschel}{280}
\citation{B07}
\bibcite{FME03-Butler}{281}
\bibcite{ZB05-Leuschel}{282}
\citation{ZB05}
\bibcite{Levy02a}{283}
\bibcite{B96-Lopez}{284}
\citation{B96-Habrias}
\bibcite{BUGM99-Lopez}{285}
\citation{BUGM99}
\bibcite{ZB00-Lopez}{286}
\citation{ZB00}
\bibcite{ZB02}{287}
\bibcite{B98-Malioukov}{288}
\citation{B98}
\bibcite{AFADL04-Mammar}{289}
\citation{AFADL2004}
\bibcite{Marcano00c}{290}
\bibcite{AFADL2001-Marcano}{291}
\citation{AFADL2001}
\bibcite{Marcano02b}{292}
\bibcite{Marcano02a}{293}
\bibcite{FORMS04-Marcano}{294}
\citation{FORMS04}
\bibcite{AFADL2000-Marcano}{295}
\citation{AFADL2000}
\bibcite{Marcano-PhD}{296}
\bibcite{LM02000-Marcano}{297}
\bibcite{Mariano-PhD}{298}
\bibcite{ESTAS-RT1999-25}{299}
\bibcite{Mariano2002}{300}
\bibcite{Mariano96}{301}
\bibcite{Masson-2001}{302}
\bibcite{BUT-D2}{303}
\bibcite{FM99-Matthews}{304}
\citation{FM99-I}
\bibcite{B98-Matthews}{305}
\citation{B98}
\bibcite{CPA07-McEwan}{306}
\citation{CPA07}
\bibcite{ZB03-MacIver}{307}
\citation{ZB03}
\bibcite{Mejia97}{308}
\citation{arago20}
\bibcite{Mermet96}{309}
\bibcite{UMLB}{310}
\bibcite{B96-Mery}{311}
\citation{B96-Habrias}
\bibcite{RODIN-BEvt}{312}
\bibcite{Meyer-PhD}{313}
\bibcite{IFM2000-Meyer}{314}
\bibcite{FM99-Meyer}{315}
\citation{FM99-I}
\bibcite{ZB02-Mikhailov}{316}
\citation{ZB02}
\bibcite{ZB05-Morgan}{317}
\bibcite{MOSIM06-Mosbahi}{318}
\bibcite{Motre2000}{319}
\bibcite{AFADL2000-Motre}{320}
\citation{AFADL2000}
\bibcite{Motre-Teri}{321}
\bibcite{Moulding95a}{322}
\bibcite{AFADL2000-Mountassir}{323}
\citation{AFADL2000}
\bibcite{FM99-Munoz}{324}
\citation{FM99-I}
\bibcite{Nei91}{325}
\bibcite{Neilson94}{326}
\bibcite{arago20}{327}
\bibcite{Okalas-PhD}{328}
\bibcite{IFM05-Okalas}{329}
\citation{IFM05}
\bibcite{FDL06-Oliver}{330}
\bibcite{B07-Oliver}{331}
\citation{B07}
\bibcite{AFADL04-Okalas}{332}
\citation{AFADL2004}
\bibcite{ZB02-Papatsaras}{333}
\citation{ZB02}
\bibcite{Parreaux-PhD}{334}
\bibcite{B98-Petin}{335}
\citation{B98}
\bibcite{Petit-PhD}{336}
\bibcite{JFLA2002-Petit}{337}
\bibcite{AFADL2003-Petit}{338}
\citation{AFADL2003}
\bibcite{FORMS2003-Petit}{339}
\bibcite{CBD2002-Petit}{340}
\bibcite{IDPT2003-Petit}{341}
\bibcite{Plosila-2000}{342}
\bibcite{ZB03-Poerschke}{343}
\citation{ZB03}
\bibcite{ZB02-Poppleton}{344}
\citation{ZB02}
\bibcite{HDR-Potet}{345}
\bibcite{TSI22-Potet}{346}
\bibcite{B98-Potet}{347}
\citation{B98}
\bibcite{ZB03-Pouzancre}{348}
\citation{ZB03}
\bibcite{PRA95b}{349}
\bibcite{Z2B-Pratten95}{350}
\bibcite{VDM91}{351}
\bibcite{AFADL2000-Py}{352}
\citation{AFADL2000}
\bibcite{Requet00}{353}
\bibcite{HASE00-Requet}{354}
\bibcite{ZB05-Rezazadeh}{355}
\citation{ZB05}
\bibcite{RBH94}{356}
\bibcite{Bcases98-Robinson}{357}
\citation{Bcases98}
\bibcite{ZB00-Robinson}{358}
\citation{ZB00}
\bibcite{B96-Robinson}{359}
\citation{B96-Habrias}
\bibcite{Robinson97}{360}
\bibcite{FMP97}{361}
\bibcite{JFLA04-Rocheteau}{362}
\bibcite{FM99-Rouzaud}{363}
\citation{FM99-I}
\bibcite{AFADL04-Barradas}{364}
\citation{AFADL2004}
\bibcite{FM99-Sabatier}{365}
\citation{FM99-I}
\bibcite{Schneider2002}{366}
\bibcite{Schneider05}{367}
\bibcite{ZB02-Schneider}{368}
\citation{ZB02}
\bibcite{IFM05-Schneider}{369}
\bibcite{FORMS04}{370}
\bibcite{B98-Sekerinski}{371}
\citation{B98}
\bibcite{Bcases98}{372}
\bibcite{Sekerinski2001}{373}
\bibcite{Sekerinski2002}{374}
\bibcite{B07-Servat}{375}
\citation{B07}
\bibcite{B96-Shore}{376}
\citation{B96-Habrias}
\bibcite{Snook-2002}{377}
\bibcite{Snook-2003}{378}
\bibcite{B07-Snook}{379}
\citation{B07}
\bibcite{Sorensen2001}{380}
\bibcite{Sorensen94}{381}
\bibcite{Stoddart94}{382}
\bibcite{ZB00-Stoddart}{383}
\citation{ZB00}
\bibcite{B07-Stoddart}{384}
\citation{B07}
\bibcite{Stoddart99}{385}
\bibcite{B98-Stoddart}{386}
\citation{B98}
\bibcite{BUGM99-Stoddart}{387}
\citation{BUGM99}
\bibcite{ZB03-Stoddart}{388}
\citation{ZB03}
\bibcite{Sto92}{389}
\bibcite{SH94}{390}
\bibcite{AFADL04-Stouls}{391}
\citation{AFADL2004}
\bibcite{B07-Stouls}{392}
\citation{B07}
\bibcite{Traverson-PhD}{393}
\bibcite{TTV96}{394}
\bibcite{B98-Traverson}{395}
\citation{B98}
\bibcite{Tatibouet2003}{396}
\bibcite{Tatibouet2001}{397}
\bibcite{Thuan-PhD}{398}
\bibcite{Traverson97}{399}
\bibcite{B98-Treharne}{400}
\citation{B98}
\bibcite{ZB05}{401}
\bibcite{Treharne99b}{402}
\bibcite{BUGM99-Treharne}{403}
\citation{BUGM99}
\bibcite{Treharne:IFM99}{404}
\bibcite{Treharne99a}{405}
\bibcite{ZB00-Treharne}{406}
\citation{ZB00}
\bibcite{ZB03-Treharne}{407}
\citation{ZB03}
\bibcite{AFADL04-Truong}{408}
\citation{AFADL2004}
\bibcite{Aertryck98-PhD}{409}
\bibcite{Aertryck97b}{410}
\bibcite{Aertryck97a}{411}
\bibcite{VoisinetTJ05}{412}
\bibcite{UMLB-Voros}{413}
\bibcite{Waeselynck97a}{414}
\bibcite{Waeselynck97b}{415}
\bibcite{WB95}{416}
\bibcite{FEM98-Waeselynck}{417}
\bibcite{B98-Walden}{418}
\citation{B98}
\bibcite{Watrin01}{419}
\bibcite{Watson97}{420}
\bibcite{FM99-I}{421}
\bibcite{FM99-II}{422}
\bibcite{Wordsworth96}{423}
\bibcite{B07-Yang}{424}
\citation{B07}
\bibcite{CPA07-Yang}{425}
\citation{CPA07}
\bibcite{ZB05-Zeyda}{426}
\citation{ZB05}
\bibcite{ZB05-Zimmermann}{427}
\citation{ZB05}
\bibstyle{abbrv}
